{
	"SldsButtonSvgIcon.tpl.html": "<svg aria-hidden=\"true\" class=\"slds-button__icon slds-button__icon--{{size}} {{extraClasses}}\" xmlns=\"http://www.w3.org/2000/svg\" preserveAspectRatio=\"xMidYMid meet\" >\n    <use xlink:href=\"\"></use>\n</svg>\n\n",
	"SldsDatePicker.tpl.html": "<div class=\"slds-datepicker slds-dropdown slds-dropdown--left\" aria-hidden=\"false\">\n  <div class=\"slds-datepicker__filter slds-grid\">\n    <div class=\"slds-datepicker__filter--month slds-grid slds-grid--align-spread slds-grow\">\n      <div class=\"slds-align-middle\">\n        <button class=\"slds-button slds-button--icon-container\" title=\"{{::$root.vlocity.getCustomLabel('PreviousMonth', 'Previous Month')}}\"  ng-click=\"$selectMonth(-1)\">\n        <slds-button-svg-icon sprite=\"'utility'\" icon=\"directions.prev\"/>\n          <span class=\"slds-assistive-text\">{{::$root.vlocity.getCustomLabel('PreviousMonth', \"Previous Month\")}}</span>\n        </button>\n      </div>\n      <h2 id=\"month\" class=\"slds-align-middle\" aria-live=\"assertive\" aria-atomic=\"true\" ng-bind=\"title\"></h2>\n      <div class=\"slds-align-middle\">\n        <button class=\"slds-button slds-button--icon-container\" title=\"{{::$root.vlocity.getCustomLabel('NextMonth', 'Next Month')}}\" ng-click=\"$selectMonth(+1)\">\n          <slds-button-svg-icon sprite=\"'utility'\" icon=\"directions.next\"/>\n          <span class=\"slds-assistive-text\">{{::$root.vlocity.getCustomLabel('NextMonth', 'Next Month')}}</span>\n        </button>\n      </div>\n    </div>\n    <div class=\"slds-shrink-none\">\n      <label class=\"slds-assistive-text\" for=\"select-01\">Pick a Year</label>\n      <div class=\"slds-select_container\">\n        <select id=\"select-01\" class=\"slds-select\" ng-model=\"datePickerViewModel.currentYear\">\n            <option ng-repeat=\"year in years\" ng-value=\"year\">{{year}}</option>\n        </select>\n      </div>\n    </div>\n  </div>\n  <table class=\"slds-datepicker__month\" role=\"grid\" aria-labelledby=\"month\">\n    <thead>\n      <tr id=\"weekdays\">\n        <th id=\"{{el.date | date:'EEEE'}}\" scope=\"col\" ng-repeat=\"(j, el) in rows[0]\">\n          <abbr title=\"{{el.date | date:'EEEE'}}\">{{el.date | date:'EEE'}}</abbr>\n        </th>\n      </tr>\n    </thead>\n    <tbody>\n      <tr id=\"week-{{$index}}\" ng-repeat=\"(i, row) in rows\">\n        <td ng-repeat=\"(j, el) in row\"\n            ng-class=\"{'slds-disabled-text': el.muted || el.disabled, 'slds-is-today': el.isToday && !el.selected, 'slds-is-selected': el.selected}\"\n            ng-attr-headers=\"Sunday week-{{$index}}\" role=\"gridcell\" ng-attr-aria-disabled=\"{{el.disabled}}\" ng-attr-aria-selected=\"{{el.selected}}\"\n               ng-style=\"el.disabled && {'cursor':'not-allowed'}\">\n          <span class=\"slds-day\" ng-click=\"$select(el.date, el.disabled)\" ng-bind=\"el.label\"></span>\n        </td>\n      </tr>\n      <tr>\n        <td colspan=\"7\" role=\"gridcell\">\n          <a href=\"javascript:void(0);\" class=\"slds-show--inline-block slds-p-bottom--x-small\" ng-click=\"$setToday()\">Today</a>\n        </td>\n      </tr>\n    </tbody>\n  </table>\n</div>",
	"SldsDropdown.tpl.html": "<div class=\"slds-dropdown-trigger slds-dropdown-trigger--click\" ng-class=\"{'slds-is-open': isOpen, 'slds-button--last': type == 'button-group'}\" aria-expanded=\"true\">\n  <button class=\"slds-button {{::buttonClasses}} slds-button--icon-{{::buttonSize}}\" aria-haspopup=\"true\" ng-click=\"toggleDropdown(); $event.stopPropagation();\" id=\"{{::idPrefix}}-toggle\">\n    <slds-button-svg-icon size=\"type === 'button-group' ? null : 'small'\" sprite=\"'utility'\" icon=\"'down'\" extra-classes=\"'slds-button__icon--hint'\" />\n    <span class=\"slds-assistive-text\">{{::$root.vlocity.getCustomLabel('ShowMore', 'Show More')}}</span>\n  </button>\n  <div class=\"slds-dropdown slds-dropdown--{{::direction}} slds-dropdown--actions\">\n    <ul class=\"dropdown__list\" role=\"menu\">\n      <li ng-class=\"{'slds-dropdown__item': !item.divider, 'slds-has-divider--top-space': item.divider}\" ng-repeat=\"item in content\" ng-hide=\"item.hide(this)\" title=\"{{getText(item, this)}}\">\n        <a role=\"menuitem\" \n            ng-href=\"{{item.href}}\"\n            ng-if=\"item.href\"\n            target=\"{{item.target || ''}}\" id=\"{{::idPrefix}}-{{::item.id}}\">\n          <p class=\"slds-truncate\">\n            <span class=\"icon big {{::item.vlocityIcon}} \" aria-hidden=\"true\" ng-if=\"item.vlocityIcon\"></span>\n            <slds-svg-icon size=\"'x-small'\" extra-classes=\"'slds-icon-text-default slds-m-right--x-small'\" sprite=\"::item.icon(this).sprite\" icon=\"::item.icon(this).icon\" ng-if=\"!item.vlocityIcon && item.icon(this).icon\"></slds-svg-icon>\n            {{getText(item, this)}}\n          </p>\n        </a>\n        <a role=\"menuitem\"\n            href=\"javascript:void(0)\"\n            ng-if=\"(item.click || !item.href)\"\n            ng-click=\"item.click(this, $event);$hide()\" id=\"{{::idPrefix}}-{{::item.id}}\">\n          <p class=\"slds-truncate\">\n            <span class=\"icon big {{::item.vlocityIcon}}\" aria-hidden=\"true\" ng-if=\"item.vlocityIcon\"></span>\n            <slds-svg-icon size=\"'x-small'\" extra-classes=\"'slds-icon-text-default slds-m-right--x-small'\" sprite=\"::item.icon(this).sprite\" icon=\"::item.icon(this).icon\" ng-if=\"!item.vlocityIcon && item.icon(this).icon\"></slds-svg-icon>\n            {{getText(item, this)}}\n          </p>\n        </a>\n      </li>\n    </ul>\n  </div>\n</div>",
	"SldsDropdownButtonGroup.tpl.html": "<button class=\"slds-button slds-button--icon-border-filled slds-dropdown-trigger slds-dropdown-trigger--click\" ng-class=\"{'slds-is-open': isOpen}\" aria-expanded=\"true\" ng-click=\"isOpen = !isOpen\" aria-haspopup=\"true\">\n    <slds-button-svg-icon size=\"{{type ? type : 'small'}}\" sprite=\"'utility'\" icon=\"'down'\" />\n    <span class=\"slds-assistive-text\">{{::$root.vlocity.getCustomLabel('ShowMore', 'Show More')}}</span>\n  <div class=\"slds-dropdown slds-dropdown--{{direction}} slds-dropdown--actions\">\n    <ul class=\"dropdown__list\" role=\"menu\">\n      <li class=\"slds-dropdown__item\" ng-repeat=\"item in content\">\n        <a role=\"menuitem\" \n            ng-href=\"{{item.href}}\"\n            ng-if=\"item.href\"\n            target=\"{{item.target || ''}}\" >\n          <p class=\"slds-truncate\">\n            <slds-svg-icon size=\"'x-small'\" extra-classes=\"'slds-icon-text-default slds-m-right--x-small'\" sprite=\"item.icon.sprite\" icon=\"item.icon.icon\" ng-if=\"item.icon\"></slds-svg-icon>\n            {{item.text}}\n          </p>\n        </a>\n        <a role=\"menuitem\"\n            href=\"javascript:void(0)\"\n            ng-if=\"item.click || !item.href\"\n            ng-click=\"$eval(item.click);$hide()\">\n          <p class=\"slds-truncate\">\n            <slds-svg-icon size=\"'x-small'\" extra-classes=\"'slds-icon-text-default slds-m-right--x-small'\" sprite=\"item.icon.sprite\" icon=\"item.icon.icon\" ng-if=\"item.icon\" ></slds-svg-icon>\n            {{item.text}}\n          </p>\n        </a>\n      </li>\n    </ul>\n  </div>\n</button>",
	"SldsEmptyPagination.tpl.html": "",
	"SldsFilterPanel.tpl.html": "<style>\n  .via-slds .slds-has-list-interactions>.slds-list__item.slds-is-unsaved {\n    background: rgb(250, 255, 189);\n  }\n  .via-slds .slds-filter-panel {\n    min-width: 320px;\n    background: rgb(244, 246, 249);\n  }\n  .via-slds .slds-filter-panel-container {\n    background: #FFF;\n  }\n  .via-slds .slds-filter-panel-container > .slds-col--rule-bottom {\n    border-color: rgb(216, 221, 230);\n  }\n</style>\n<div class=\"slds-filter-panel-container slds-grid slds-grid--vertical slds-grid--vertical-stretch\" style=\"min-width: 320px\" ng-show=\"show\">\n    <div class=\"slds-grid slds-col--rule-top slds-col--rule-bottom slds-p-left--small slds-p-right--small slds-p-top--medium slds-p-bottom--large\" ng-if=\"!showCancelSave()\">\n        <div class=\"slds-text-heading--small slds-col--bump-right\">{{::$root.vlocity.getCustomLabel('Filters', 'Filters')}}</div>\n        <button class=\"slds-button slds-button--icon slds-button--icon-small\" ng-click=\"hide()\">\n          <slds-button-svg-icon sprite=\"'utility'\" icon=\"'forward'\" size=\"'small'\"></slds-button-svg-icon>\n          <span class=\"slds-assistive-text\">{{::$root.vlocity.getCustomLabel('HideFilter', 'Hide Filter')}}</span>\n        </button>\n    </div>\n    <div class=\"slds-grid slds-col--rule-top slds-col--rule-bottom slds-p-left--small slds-p-right--small slds-p-top--medium slds-p-bottom--medium\" ng-if=\"showCancelSave()\">\n        <button class=\"slds-button slds-button--neutral\" ng-click=\"cancelEdits()\">\n          {{::$root.vlocity.getCustomLabel('Cancel', 'Cancel')}}\n        </button>\n        <span></span>\n        <button class=\"slds-button slds-button--brand slds-col--bump-left\" ng-click=\"saveAndApplyEdits()\">\n          {{::$root.vlocity.getCustomLabel('Save', 'Save')}}\n        </button>\n    </div>\n    <div class=\"slds-p-top--small slds-p-left--small slds-p-right--small slds-p-bottom--x-small\">\n        <ul class=\"slds-list--vertical slds-has-cards--space slds-has-list-interactions\">\n          <li class=\"slds-list__item slds-filter-panel__scope\" ng-click=\"editScope()\">\n            <div class=\"slds-tile slds-tile--board\">\n                <div class=\"slds-text-body--small\">{{::$root.vlocity.getCustomLabel('ShowMe', 'Show me')}}</div>\n                <div class=\"slds-text-body--regular\" ng-if=\"scope.value == 'Everything'\">{{$root.vlocity.getCustomLabel('AllType', 'All {1}',type)}}</div>\n                <div class=\"slds-text-body--regular\" ng-if=\"scope.value !== 'Everything'\">{{$root.vlocity.getCustomLabel('MyType', 'My {1}',type)}}</div>\n            </div>\n          </li>\n          <div class=\"slds-text-body--regular slds-p-bottom--small slds-p-top--small\" ng-if=\"filters.length > 0\">{{::$root.vlocity.getCustomLabel('MatchingAllOfTheseFilters', 'Matching all of these filters')}}</div>\n          <li class=\"slds-list__item\" ng-class=\"{'slds-is-selected': filter.editing, 'slds-is-unsaved': filter.saved === false}\" ng-repeat=\"filter in filters\" ng-click=\"editFilter(filter, $index)\" data-index=\"{{$index}}\" ng-hide=\"filter.deleted\">\n            <div class=\"slds-tile slds-tile--board\">\n                <button class=\"slds-button slds-button--icon slds-float--right\" ng-click=\"deleteFilter(filter, $index);$event.stopPropagation()\">\n                  <slds-button-svg-icon sprite=\"'action'\" icon=\"'close'\"></slds-button-svg-icon>\n                  <span class=\"slds-assistive-text\">{{::$root.vlocity.getCustomLabel('Remove', 'Remove')}}</span>\n                </button>\n                <div class=\"slds-text-body--small\">{{filter.name ? filter.name.Label : $root.vlocity.getCustomLabel('NewFilter', 'New Filter')}}{{filter.saved == false ? '*' : ''}}</div>\n                <div class=\"slds-text-body--regular\" ng-if=\"filter.name.Type !== 'DATE' && filter.name.Type !== 'DATETIME'\">{{possibleFilters[filter.operator]}}&nbsp;{{filter.value}}</div>\n                <div class=\"slds-text-body--regular\" ng-if=\"filter.name.Type === 'DATE' || filter.name.Type === 'DATETIME'\">{{possibleFilters[filter.operator]}}&nbsp;{{filter.value | date:'fullDate'}}</div> \n            </div>\n          </li>\n        </ul>\n        <div class=\"slds-grid slds-m-top--small\">\n          <div class=\"slds-col\">\n            <button class=\"slds-button\" ng-click=\"addFilter()\">{{::$root.vlocity.getCustomLabel('AddFilter', 'Add Filter')}}</button>\n          </div>\n          <div class=\"slds-col\">\n            <button class=\"slds-button slds-float--right\" ng-click=\"removeAll()\">{{::$root.vlocity.getCustomLabel('RemoveAll', 'Remove All')}}</button>\n          </div>\n        </div>\n    </div>\n</div>",
	"SldsFilterPanelFieldPopover.tpl.html": "<div class=\"slds-popover slds-nubbin--right\" role=\"dialog\"  style=\"position: absolute;\">\n  <div class=\"slds-popover__body\">\n    <div class=\"slds-form-element slds-m-bottom--x-large\">\n      <label class=\"slds-form-element__label\" for=\"select-01\">{{::$root.vlocity.getCustomLabel('Field', 'Field')}}</label>\n      <div class=\"slds-form-element__control\">\n        <div class=\"slds-select_container\">\n          <select class=\"slds-select\" ng-model=\"newName\" ng-options=\"name as name.Label for name in names | orderBy:'Label'\">\n          </select>\n        </div>\n      </div>\n    </div>\n    <div class=\"slds-form-element slds-m-bottom--x-large\">\n      <label class=\"slds-form-element__label\" for=\"select-01\">{{::$root.vlocity.getCustomLabel('Operator', 'Operator')}}</label>\n      <div class=\"slds-form-element__control\">\n        <div class=\"slds-select_container\">\n          <select class=\"slds-select\" ng-model=\"newOperator\" ng-options=\"key as value for (key, value) in operators\">\n          </select>\n        </div>\n      </div>\n    </div>\n    <div class=\"slds-form-element slds-m-bottom--x-large\">\n      <label class=\"slds-form-element__label\" for=\"select-01\">{{::$root.vlocity.getCustomLabel('Value', 'Value')}}</label>\n      <div class=\"slds-form-element__control\">\n          <input class=\"slds-input\" type=\"text\" ng-model=\"filterViewModel.newText\" ng-if=\"newName.Type !== 'DATE' && newName.Type !== 'DATETIME' && newName.Type !== 'INT' && newName.Type !== 'DOUBLE'\"/>\n          <input class=\"slds-input\" type=\"text\" ng-model=\"filterViewModel.newDate\" ng-if=\"newName.Type === 'DATE' || newName.Type === 'DATETIME'\" slds-date-picker nubbin-direction=\"top\"/>\n          <input class=\"slds-input\" type=\"number\" ng-model=\"filterViewModel.newInt\" ng-if=\"newName.Type === 'INT' || newName.Type === 'DOUBLE'\"/>\n      </div>\n    </div>\n    <div class=\"slds-grid\">\n        <div class=\"slds-col\">\n            <button class=\"slds-button slds-button--neutral slds-float--right\" ng-click=\"done(newName, newOperator, (newName.Type === 'INT' || newName.Type === 'DOUBLE') ? filterViewModel.newInt : ((newName.Type === 'DATE' || newName.Type === 'DATETIME') ? filterViewModel.newDate : filterViewModel.newText))\">{{::$root.vlocity.getCustomLabel('Done', 'Done')}}</button>\n        </div>\n    </div>\n  </div>\n</div>",
	"SldsFilterPanelScopePopover.tpl.html": "<div class=\"slds-popover slds-nubbin--right\" role=\"dialog\"  style=\"position: absolute;\">\n  <div class=\"slds-popover__body\">\n    <fieldset class=\"slds-form-element slds-m-bottom--x-large\">\n      <legend class=\"slds-form-element__legend slds-form-element__label\">{{::$root.vlocity.getCustomLabel('ShowMe', 'Show me')}}</legend>\n      <div class=\"slds-form-element__control\">\n        <label class=\"slds-radio\">\n          <input type=\"radio\" ng-model=\"scopeValue\" value=\"Everything\"/>\n          <span class=\"slds-radio--faux\"></span>\n          <span class=\"slds-form-element__label\">{{$root.vlocity.getCustomLabel('AllType', 'All {1}', type)}}</span>\n        </label>\n        <label class=\"slds-radio\">\n          <input type=\"radio\" ng-model=\"scopeValue\" value=\"Mine\"/>\n          <span class=\"slds-radio--faux\"></span>\n          <span class=\"slds-form-element__label\">{{$root.vlocity.getCustomLabel('MyType', 'My {1}', type)}}</span>\n        </label>\n      </div>\n    </fieldset>\n    <div class=\"slds-grid\">\n        <div class=\"slds-col\">\n            <button class=\"slds-button slds-button--neutral slds-float--right\" ng-click=\"doneScope(scopeValue)\">{{::$root.vlocity.getCustomLabel('Done', 'Done')}}</button>\n        </div>\n    </div>\n  </div>\n</div>",
	"SldsFormElement.tpl.html": "<div class=\"slds-form-element\" \n     ng-form id=\"{{::ctrl.uniqueName}}-form-element\" \n     name=\"{{::ctrl.uniqueName}}\" \n     ng-class=\"{'slds-has-error': ctrl.ngModel.$invalid}\">\n    <div class=\"slds-form-element__label\" \n         ng-if=\"::ctrl.field.inlineHelpText && ctrl.field.type !== 'BOOLEAN' && ctrl.field.type\">\n        <label class=\"slds-align-middle\" \n               for=\"{{::ctrl.uniqueName}}\" \n               ng-bind-html=\"ctrl.getLabel(ctrl.field, ctrl.model)\"></label>\n    </div>\n    <div class=\"slds-form-element__icon\" \n         ng-if=\"::ctrl.field.inlineHelpText && ctrl.field.type !== 'BOOLEAN'\">\n        <button class=\"slds-button slds-button_icon\"\n                slds-popover \n                container=\"{{ctrl.container}}\" \n                tooltip=\"true\" \n                nubbin-direction=\"bottom-left\" \n                title=\"{{::ctrl.field.inlineHelpText}}\">            \n            <slds-svg-icon sprite=\"'utility'\" \n                           icon=\"'info'\" \n                           size=\"'x-small'\" \n                           extra-classes=\"'slds-icon-text-default'\" \n                           aria-hidden=\"true\"></slds-svg-icon>\n            <span class=\"slds-assistive-text\">Help</span>\n        </button>\n    </div>\n    <label class=\"slds-form-element__label\" \n          for=\"{{::ctrl.uniqueName}}\" \n          ng-if=\"::(ctrl.field.type !== 'BOOLEAN' && ctrl.field.type) && !ctrl.field.inlineHelpText\" \n          ng-bind-html=\"ctrl.getLabel(ctrl.field, ctrl.model)\">\n    </label>\n    <fieldset class=\"slds-form_compound\" \n              ng-if=\":: ctrl.field.type === 'DATETIME'\">\n        <div class=\"slds-form-element__group\">\n            <div class=\"slds-form-element__row\">\n                <div class=\"slds-form-element slds-input-has-icon slds-input-has-icon_right slds-size_1-of-2\">\n                    <slds-input-svg-icon sprite=\"'utility'\" \n                                         icon=\"'event'\" \n                                         size=\"'small'\" \n                                         extra-classes=\"'slds-icon-text-default'\" ></slds-input-svg-icon>\n                    <input id=\"{{::ctrl.uniqueName}}\" \n                           class=\"slds-input\" \n                           type=\"datetime\" \n                           placeholder=\"\" \n                           ng-model=\"ctrl.model\" \n                           ng-disabled=\"ctrl.disabled\" \n                           ng-model-options=\"{updateOn: 'default blur', debounce: {'default': 2000, 'blur': 0}}\" \n                           slds-date-picker \n                           container=\"{{ctrl.container}}\" \n                           ng-required=\"::ctrl.isRequired(ctrl.field)\" \n                           aria-describedby=\"{{::ctrl.uniqueName}}-error\" \n                           ng-change=\"ctrl.handleChange()\"/>\n                </div>\n                <div class=\"slds-form-element slds-input-has-icon slds-input-has-icon_right slds-size_1-of-2\" style=\"margin-top: 0\">\n                    <slds-input-svg-icon sprite=\"'utility'\" \n                                         icon=\"'clock'\" \n                                         size=\"'small'\" \n                                         extra-classes=\"'slds-icon-text-default'\" ></slds-input-svg-icon>\n                    <input id=\"{{::ctrl.uniqueName}}\" \n                           class=\"slds-input\" \n                           type=\"datetime\" \n                           placeholder=\"\" \n                           ng-model=\"ctrl.model\" \n                           ng-disabled=\"ctrl.disabled\" \n                           ng-model-options=\"{updateOn: 'default blur', debounce: {'default': 2000, 'blur': 0}}\" \n                           slds-time-picker \n                           container=\"{{ctrl.container}}\" \n                           ng-required=\"::ctrl.isRequired(ctrl.field)\" \n                           aria-describedby=\"{{::ctrl.uniqueName}}-error\"\n                           ng-change=\"ctrl.handleChange()\"/>\n                </div>\n            </div>\n        </div>\n    </fieldset>\n    <div class=\"slds-form-element__control\" \n         ng-if=\"::ctrl.field.type !== 'DATETIME'\" \n         ng-class=\"{'slds-input-has-icon slds-input-has-icon_right': ctrl.field.type === 'DATE' || ctrl.hasValidators}\">\n        <slds-input-svg-icon sprite=\"'utility'\" \n                             icon=\"'spinner'\" \n                             extra-classes=\"'slds-icon-text-default'\" \n                             ng-if=\"ctrl.isValidating.length > 0\"></slds-input-svg-icon>\n        <input id=\"{{::ctrl.uniqueName}}\" \n               class=\"slds-input\" \n               type=\"text\" \n               placeholder=\"\" \n               ng-model=\"ctrl.model\" \n               ng-if=\"ctrl.field.type === 'STRING'\" \n               ng-disabled=\"ctrl.disabled\" \n               ng-model-options=\"{updateOn: 'default blur', debounce: {'default': 2000, 'blur': 0}}\" \n               ng-required=\"::ctrl.isRequired(ctrl.field)\" \n               ng-maxlength=\"255\" \n               aria-describedby=\"{{::ctrl.uniqueName}}-error\"\n               ng-change=\"ctrl.handleChange()\"/>\n        <input id=\"{{::ctrl.uniqueName}}\" \n               class=\"slds-input\"\n               type=\"number\" \n               placeholder=\"\" \n               ng-model=\"ctrl.model\"\n               ng-if=\"::ctrl.field.type === 'DOUBLE'\" \n               ng-disabled=\"ctrl.disabled\" \n               ng-model-options=\"{updateOn: 'default blur', debounce: {'default': 2000, 'blur': 0}}\"  \n               ng-required=\"::ctrl.isRequired(ctrl.field)\" \n               aria-describedby=\"{{::ctrl.uniqueName}}-error\"\n               ng-maxlength=\"::ctrl.field.precision\"\n               ng-change=\"ctrl.handleChange()\"/>\n        <input id=\"{{::ctrl.uniqueName}}\" \n               class=\"slds-input\" \n               type=\"number\" \n               step=\"1\" \n               placeholder=\"\" \n               ng-model=\"ctrl.model\" \n               ng-if=\"::ctrl.field.type === 'INT'\" \n               ng-disabled=\"ctrl.disabled\" \n               ng-model-options=\"{updateOn: 'default blur', debounce: {'default': 2000, 'blur': 0}}\" \n               ng-required=\"::ctrl.isRequired(ctrl.field)\" \n               aria-describedby=\"{{::ctrl.uniqueName}}-error\"\n               ng-change=\"ctrl.handleChange()\"/>\n        <slds-input-svg-icon sprite=\"'utility'\" \n                             icon=\"'event'\" \n                             size=\"'small'\" \n                             extra-classes=\"'slds-icon-text-default'\" \n                             ng-if=\"::ctrl.field.type === 'DATE'\" ></slds-input-svg-icon>\n        <input id=\"{{::ctrl.uniqueName}}\" \n               class=\"slds-input\" \n               type=\"text\" \n               placeholder=\"\" \n               ng-model=\"ctrl.model\" \n               ng-if=\"::ctrl.field.type === 'DATE'\" \n               ng-disabled=\"ctrl.disabled\" \n               ng-model-options=\"{updateOn: 'default blur', debounce: {'default': 2000, 'blur': 0}}\" \n               slds-date-picker \n               container=\"{{ctrl.container}}\" \n               ng-required=\"::ctrl.isRequired(ctrl.field)\" \n               aria-describedby=\"{{::ctrl.uniqueName}}-error\" \n               date-type=\"date\" \n               timezone=\"UTC\"\n               ng-change=\"ctrl.handleChange()\"/>\n        <textarea id=\"{{::ctrl.uniqueName}}\" \n                  class=\"slds-textarea\" \n                  ng-model=\"ctrl.model\" \n                  ng-if=\"::ctrl.field.type === 'TEXTAREA'\"\n                  ng-disabled=\"ctrl.disabled\" \n                  ng-model-options=\"{updateOn: 'default blur', debounce: {'default': 2000, 'blur': 0}}\" \n                  rows=\"3\"\n                  ng-required=\"::ctrl.isRequired(ctrl.field)\" \n                  aria-describedby=\"{{::ctrl.uniqueName}}-error\"  \n                  ng-change=\"ctrl.handleChange()\"></textarea>\n        <span class=\"slds-checkbox\" \n              ng-if=\"::ctrl.field.type === 'BOOLEAN'\">\n            <input type=\"checkbox\" \n                   id=\"{{::ctrl.uniqueName}}\" \n                   ng-model=\"ctrl.model\" \n                   ng-disabled=\"ctrl.disabled\" \n                   aria-describedby=\"{{::ctrl.uniqueName}}-error\"\n                   ng-change=\"ctrl.handleChange()\"/>\n            <label class=\"slds-checkbox__label\" \n                   for=\"{{::ctrl.uniqueName}}\">\n                <span class=\"slds-checkbox_faux\"></span>\n                <span class=\"slds-form-element__label\" \n                      ng-bind=\"::ctrl.field.label\"></span>\n                <div class=\"slds-form-element__icon\" \n                     ng-if=\"::ctrl.field.inlineHelpText\">\n                    <button class=\"slds-button slds-button_icon\"\n                            slds-popover \n                            container=\"{{ctrl.container}}\" \n                            tooltip=\"true\" \n                            nubbin-direction=\"bottom-left\" \n                            title=\"{{::ctrl.field.inlineHelpText}}\">\n                        <slds-svg-icon sprite=\"'utility'\" \n                                      icon=\"'info'\"\n                                      size=\"'x-small'\" \n                                      extra-classes=\"'slds-icon-text-default'\" \n                                      aria-hidden=\"true\"></slds-svg-icon>\n                        <span class=\"slds-assistive-text\">Help</span>\n                    </button>\n                </div>\n            </label>\n        </span>\n        <slds-picklist id=\"{{::ctrl.uniqueName}}\" \n                      ng-model=\"ctrl.model\" \n                      multiple=\"ctrl.field.type === 'MULTIPICKLIST'\"\n                      slds-options=\"option.value as option.label for option in ctrl.field.picklistValues\"\n                      ng-if=\"(ctrl.field.type === 'MULTIPICKLIST' || ctrl.field.type === 'PICKLIST')\"\n                      restrict=\"ctrl.field.restricted\"\n                      ng-disabled=\"ctrl.disabled\" \n                      ng-required=\"::ctrl.isRequired(ctrl.field)\" \n                      autocomplete=\"::(ctrl.field.autocomplete || !ctrl.field.restricted)\" \n                      ng-attr-empty-text=\"{{ctrl.getEmptyText(ctrl.field, ctrl.model)}}\" \n                      ng-change=\"ctrl.handleChange()\"></slds-picklist>\n    </div>\n    <div ng-messages=\"ctrl.ngModel.$error\" \n         role=\"alert\">\n        <div id=\"{{::ctrl.uniqueName}}-error\" \n             ng-message=\"required\" \n             class=\"slds-form-element__help\">Please enter a value for this field.\n        </div>\n        <div id=\"{{::ctrl.uniqueName}}-error\" \n             ng-message=\"uniqueValue\" \n             class=\"slds-form-element__help\">This value is already used for this field. Please enter a unique value.\n        </div>\n        <div id=\"{{::ctrl.uniqueName}}-error\" \n             ng-message=\"maxlength\" \n             class=\"slds-form-element__help\">The maximum length for this value is {{::ctrl.field.precision}} characters.\n        </div>\n        <div id=\"{{::ctrl.uniqueName}}-error\" \n             ng-message=\"customValidator\" \n             class=\"slds-form-element__help\">{{::ctrl.customValidatorMessage}}\n        </div>\n    </div>\n</div>",
	"SldsGroupedTable.tpl.html": "<div class=\"slds-col slds-grid slds-grid--vertical slds-grid--vertical-stretch\">\n  <style>\n    .via-slds .slds-table .slds-text-heading--label th.row-action .slds-button {\n      visibility: hidden\n    }\n    .via-slds .slds-table {\n      border-collapse: separate;\n    }\n    .via-slds .slds-table td:not(.slds-cell-shrink), .via-slds .slds-table th:not(.slds-cell-shrink) {\n      overflow-x: hidden;\n    }\n    .via-slds .slds-table .via-table-group-hidden-header tr,\n    .via-slds .slds-table .via-table-group-hidden-header th {\n      padding-top: 0;\n      padding-bottom: 0;\n    }\n  </style>\n  <table  class=\"slds-table slds-table--bordered slds-table--resizable-cols slds-table--fixed-layout via-slds-table-pinned-header\"\n          ng-class=\"::{'slds-tree slds-table--tree': sldsGroupedTableParams.groupBy !== false,\n                      'slds-table--cell-buffer': sldsGroupedTableParams.groupBy === false}\"\n          ng-attr-role=\"::{{sldsGroupedTableParams.groupBy == false ? '' : 'treegrid'}}\"\n          ng-table-dynamic=\"ngTableParams with ::sldsGroupedTableParams.columns\"\n          show-group=\"false\" id-prefix=\"{{::idPrefix}}-grouped-table\"\n          data-resizable-columns-id=\"{{::idPrefix}}-resizable-table-header\"\n          >\n      <thead>\n        <tr class=\"slds-text-heading--label\" ng-controller=\"ngTableSorterRowController\" ng-if=\"::(sldsGroupedTableParams.groupBy !== false)\">\n          <th scope=\"col\"\n              ng-repeat=\"$column in ::$columns\"\n              ng-class=\"{'slds-is-sortable': $column.sortable(this), 'slds-is-sorted slds-is-sorted--asc' : params.sorting()[$column.sortable(this)]=='asc', 'slds-is-sorted slds-is-sorted--desc' : params.sorting()[$column.sortable(this)]=='desc', 'slds-cell-buffer--left' : $first,\n              'slds-cell-shrink': $column.shrink}\"\n              ng-if=\"$column.show(this)\"\n              id-prefix=\"{{::idPrefix}}-grouped-table\"\n              ng-init=\"template = $column.headerTemplateURL(this)\"\n              class=\"{{$column.class(this)}} slds-text-title--caps\"\n              id=\"{{::idPrefix}}-group-header-{{$column.id  || $index}}\"\n              data-resizable-column-id=\"{{::idPrefix}}-column-{{$column.id || $index}}\"\n              ng-style=\"{'width': $column.width ? $column.width + 'px' : 'auto'}\"\n              ng-data-noresize=\"!$column.resizable\">\n            <span class=\"slds-checkbox\" id=\"{{::idPrefix}}-group-header-select-all\" ng-if=\"::($first && sldsGroupedTableParams.multiselect)\" title=\"{{::$root.vlocity.getCustomLabel('ToggleSelection', 'Toggle Selection')}}\">\n              <input type=\"checkbox\" name=\"options\" id=\"checkbox-317\" ng-model=\"selected.anySelected\" slds-indeterminate=\"selected.indeterminate\" ng-change=\"toggleSelectAll()\"/>\n              <label class=\"slds-checkbox__label\" for=\"checkbox-317\" >\n                <span class=\"slds-checkbox--faux\"></span>\n                <span class=\"slds-form-element__label\"></span>\n              </label>\n            </span>\n            <span class=\"slds-truncate\" ng-if=\"::(!$column.sortable(this))\" ng-bind=\"::($column.title(this))\"></span>\n            <a href=\"javascript:void(0)\" class=\"slds-th__action slds-text-link--reset\" ng-if=\"::($column.sortable(this))\" ng-click=\"sortBy($column, $event)\" ng-style=\"::{'display': $first ? 'inline-block' : 'flex'}\"\n                id=\"{{::idPrefix}}-group-header--{{::$column.id}}-sort\" title=\"{{::$root.vlocity.getCustomLabel('Sort', 'Sort')}}\">\n            <span class=\"slds-truncate\" ng-bind=\"::($column.title(this))\"></span>\n            <div class=\"slds-icon_container\">\n              <slds-svg-icon sprite=\"'utility'\" size=\"'x-small'\" icon=\"'arrowdown'\" extra-classes=\"'slds-icon-text-default slds-is-sortable__icon'\"></slds-svg-icon>\n            </div>\n            </a>\n          </th>\n          <th class=\"row-action slds-cell-shrink\" scope=\"col\" ng-if=\"::actions\" data-noresize>\n            <button class=\"slds-button slds-button--icon-border-filled slds-button--icon-x-small\" title=\"{{::$root.vlocity.getCustomLabel('ShowMore', 'Show More')}}\">\n              <slds-button-svg-icon sprite=\"'utility'\" size=\"'small'\" icon=\"'down'\" extra-classes=\"'slds-button__icon--hint'\"></slds-button-svg-icon>\n              <span class=\"slds-assistive-text\">{{::$root.vlocity.getCustomLabel('ShowMore', 'Show More')}}</span>\n            </button>\n          </th>\n        </tr>\n        <tr class=\"slds-text-heading--label\" ng-controller=\"ngTableSorterRowController\" ng-if=\"::(sldsGroupedTableParams.groupBy === false)\">\n          <th class=\"slds-cell-shrink\" \n               ng-if=\"::(sldsGroupedTableParams.multiselect)\" \n               data-noresize\n               id=\"{{::idPrefix}}-group-header-{{$column.id  || $index}}\">\n            <span class=\"slds-checkbox\" id=\"{{::idPrefix}}-group-header-select-all\" title=\"{{::$root.vlocity.getCustomLabel('ToggleSelection', 'Toggle Selection')}}\">\n              <input type=\"checkbox\" name=\"options\" id=\"checkbox-317\" ng-model=\"selected.anySelected\" slds-indeterminate=\"selected.indeterminate\" ng-change=\"toggleSelectAll()\"/>\n              <label class=\"slds-checkbox__label\" for=\"checkbox-317\" >\n                <span class=\"slds-checkbox--faux\"></span>\n                <span class=\"slds-form-element__label\"></span>\n              </label>\n            </span>\n          </th>\n          <th scope=\"col\"\n              ng-repeat=\"$column in ::$columns\"\n              ng-class=\"{'slds-is-sortable': $column.sortable(this), 'slds-is-sorted slds-is-sorted--asc' : params.sorting()[$column.sortable(this)]=='asc', 'slds-is-sorted slds-is-sorted--desc' : params.sorting()[$column.sortable(this)]=='desc',\n              'slds-cell-shrink': $column.shrink}\"\n              ng-if=\"::($column.show(this))\"\n              id-prefix=\"idPrefix-grouped-table\"\n              ng-init=\"template = $column.headerTemplateURL(this)\"\n              ng-click=\"$column.sortable(this) && sortBy($column, $event)\"\n              class=\"{{$column.class(this)}} slds-text-title--caps\"\n              id=\"{{::idPrefix}}-group-header-{{$column.id  || $index}}\"\n              data-resizable-column-id=\"{{::idPrefix}}-column-{{::$column.id}}\"\n              ng-style=\"{'width': $column.width ? $column.width + 'px' : 'auto'}\"\n              ng-data-noresize=\"!$column.resizable\">\n            <div class=\"slds-truncate\" ng-if=\"::(!$column.sortable(this))\" ng-bind=\"::($column.title(this))\"></div>\n            <a href=\"javascript:void(0)\" class=\"slds-th__action slds-text-link--reset\" ng-if=\"::$column.sortable(this)\" id=\"{{::idPrefix}}-header--{{::$column.id}}-sort\" title=\"{{::$root.vlocity.getCustomLabel('Sort', 'Sort')}}\">\n            <span class=\"slds-truncate\" title=\"{{::($column.title(this))}}\" ng-bind=\"::($column.title(this))\"></span>\n            <div class=\"slds-icon_container\">\n              <slds-svg-icon sprite=\"'utility'\" size=\"'x-small'\" icon=\"'arrowdown'\" extra-classes=\"'slds-icon-text-default slds-is-sortable__icon'\"></slds-svg-icon>\n            </div>\n            </a>\n          </th>\n          <th class=\"slds-cell-shrink\" data-noresize></th>\n        </tr>\n      </thead>\n  </table>\n  <div class=\"slds-col\" style=\"overflow: auto; -webkit-overflow-scrolling: touch\">\n    <table class=\"slds-table slds-table--bordered slds-table--fixed-layout\"\n          ng-class=\"::{'slds-tree slds-table--tree': sldsGroupedTableParams.groupBy !== false,\n                      'slds-table--cell-buffer': sldsGroupedTableParams.groupBy === false}\"\n          ng-attr-role=\"::{{sldsGroupedTableParams.groupBy == false ? '' : 'treegrid'}}\"\n          ng-table-dynamic=\"ngTableParams with ::sldsGroupedTableParams.columns\"\n          show-group=\"false\" id-prefix=\"{{::idPrefix}}-grouped-table\"\n          data-resizable-columns-id=\"{{::idPrefix}}-resizable-table\"\n          ng-table-resizable-columns header-holder=\"{{::idPrefix}}-resizable-table-header\">\n      <thead class='via-table-group-hidden-header'>\n        <tr class=\"slds-text-heading--label\" ng-controller=\"ngTableSorterRowController\" ng-if=\"::(sldsGroupedTableParams.groupBy !== false)\">\n          <th scope=\"col\"\n              ng-repeat=\"$column in ::$columns\"\n              ng-class=\"{'slds-is-sortable': $column.sortable(this), 'slds-is-sorted slds-is-sorted--asc' : params.sorting()[$column.sortable(this)]=='asc', 'slds-is-sorted slds-is-sorted--desc' : params.sorting()[$column.sortable(this)]=='desc', 'slds-cell-buffer--left' : $first,\n              'slds-cell-shrink': $column.shrink}\"\n              ng-if=\"$column.show(this)\"\n              id-prefix=\"{{::idPrefix}}-grouped-table\"\n              ng-init=\"template = $column.headerTemplateURL(this)\"\n              class=\"{{$column.class(this)}}\"\n              id=\"{{::idPrefix}}-group-header-{{$column.id  || $index}}\"\n              data-resizable-column-id=\"{{::idPrefix}}-column-{{$column.id || $index}}\"\n              ng-style=\"{'width': $column.width ? $column.width + 'px' : 'auto'}\"\n              ng-data-noresize=\"!$column.resizable\">\n          </th>\n          <th class=\"row-action slds-cell-shrink\" scope=\"col\" ng-if=\"::actions\" data-noresize>\n          </th>\n        </tr>\n        <tr class=\"slds-text-heading--label\" ng-controller=\"ngTableSorterRowController\" ng-if=\"::(sldsGroupedTableParams.groupBy === false)\">\n          <th class=\"slds-cell-shrink\" ng-if=\"::(sldsGroupedTableParams.multiselect)\" data-noresize>\n            \n          </th>\n          <th scope=\"col\"\n              ng-repeat=\"$column in ::$columns\"\n              ng-class=\"{'slds-is-sortable': $column.sortable(this), 'slds-is-sorted slds-is-sorted--asc' : params.sorting()[$column.sortable(this)]=='asc', 'slds-is-sorted slds-is-sorted--desc' : params.sorting()[$column.sortable(this)]=='desc',\n              'slds-cell-shrink': $column.shrink}\"\n              ng-if=\"::($column.show(this))\"\n              id-prefix=\"idPrefix-grouped-table\"\n              ng-init=\"template = $column.headerTemplateURL(this)\"\n              ng-click=\"$column.sortable(this) && sortBy($column, $event)\"\n              class=\"{{$column.class(this)}}\"\n              id=\"{{::idPrefix}}-header-{{::$column.id}}\"\n              data-resizable-column-id=\"{{::idPrefix}}-column-{{::$column.id}}\"\n              ng-style=\"{'width': $column.width ? $column.width + 'px' : 'auto'}\"\n              ng-data-noresize=\"!$column.resizable\">\n          </th>\n          <th class=\"slds-cell-shrink\" data-noresize></th>\n        </tr>\n      </thead>\n      <tbody infinite-scroll=\"getMoreData()\" ng-if=\"!loading && sldsGroupedTableParams.groupBy !== false\">\n        <tr class=\"slds-hint-parent\" ng-repeat-start=\"group in $groups\" ng-click=\"groupStatus[group.value] = !groupStatus[group.value]\" role=\"row\" aria-level=\"1\" ng-attr-aria-expanded=\"groupStatus[group.value]\" id=\"{{::idPrefix}}-group-{{$index}}-row\">\n          <th class=\"slds-tree__item\" scope=\"row\" class=\"slds-tree__item\" \n                id=\"{{::idPrefix}}-group-{{$index}}-{{::$columns[0].id}}\">\n            <button class=\"slds-button slds-button--icon-bare slds-m-right--x-small\"\n                    id=\"{{::idPrefix}}-group-{{$index}}-toggle-button\" title=\"Toggle Group\">\n              <slds-button-svg-icon sprite=\"'utility'\" icon=\"'chevrondown'\" size=\"'small'\" ng-if=\"groupStatus[group.value]\"></slds-button-svg-icon>\n              <span class=\"slds-assistive-text\" ng-if=\"groupStatus[group.value]\">{{::$root.vlocity.getCustomLabel('CollapseGroup', 'Collapse Group')}}</span>\n              <slds-button-svg-icon sprite=\"'utility'\" icon=\"'chevronright'\" size=\"'small'\" ng-if=\"!groupStatus[group.value]\"></slds-button-svg-icon>\n              <span class=\"slds-assistive-text\" ng-if=\"!groupStatus[group.value]\">{{::$root.vlocity.getCustomLabel('ExpandGroup', 'Expand Group')}}</span>\n            </button>\n            <a href='javascript:void(0);' slds-bind-compiled-html=\"$columns[0].getGroupValue(this, group)\"\n                  is-dynamic=\"::($columns[0].dynamic === true || $columns[0].dynamic === 'group')\" class=\"slds-truncate\"></a>\n          </th>\n          <td ng-class=\"::{'slds-truncate': !col.shrink, 'slds-cell-shrink': col.shrink}\"\n              ng-repeat=\"col in ::$columns\" ng-if=\"::(!$first)\"\n              id=\"{{::idPrefix}}-group-{{$index}}-{{::col.id}}\">\n            <span slds-bind-compiled-html=\"col.getGroupValue(this, group)\"\n                  is-dynamic=\"::(col.dynamic === true || col.dynamic === 'group')\"></span>\n          </td>\n          <td class=\"slds-cell-shrink\" ng-if=\"::actions\">\n            <button class=\"slds-button slds-button--icon-bare\" ng-show=\"false\">\n              <slds-button-svg-icon sprite=\"'utility'\" icon=\"'error'\"></slds-button-svg-icon>\n            </button>\n          </td>\n        </tr>\n        <tr ng-if=\"groupStatus[group.value]\" ng-repeat=\"row in group.data\" ng-repeat-end=\" \"\n            ng-class=\"{'slds-is-selected': row.selected}\"\n            ng-init=\"\" role=\"row\" aria-level=\"2\"\n            id=\"{{::idPrefix}}-group-{{$parent.$index}}-{{$index}}\">\n          <th class=\"slds-tree__item\">\n            <label class=\"slds-checkbox slds-m-right--x-small\" ng-if=\"::(sldsGroupedTableParams.multiselect)\"\n                    id=\"{{::idPrefix}}-group-{{$parent.$index}}-{{$index}}-select-row\" title=\"{{::$root.vlocity.getCustomLabel('SelectRow', 'Select Row')}}\">\n              <input type=\"checkbox\" name=\"options\" ng-model=\"row.selected\" ng-change=\"toggleSelected(row)\" />\n              <span class=\"slds-checkbox--faux\"></span>\n              <span class=\"slds-assistive-text\">{{::$root.vlocity.getCustomLabel('SelectRow', 'Select Row')}}</span>\n            </label>\n            <span is-dynamic=\"::($columns[0].dynamic === true || $columns[0].dynamic === 'row')\"\n                slds-bind-compiled-html=\"$columns[0].getValue(this, row)\"\n                id=\"{{::idPrefix}}-group-{{$parent.$index}}-{{$index}}-{{::$columns[0].id}}\"></span>\n          </th>\n          <td ng-repeat=\"col in ::$columns\"\n              ng-if=\"!$first\"\n              slds-bind-compiled-html=\"col.getValue(this, row)\"\n              is-dynamic=\"::(col.dynamic === true || col.dynamic === 'row')\"\n              ng-class=\"::{'slds-truncate': !col.shrink, 'slds-cell-shrink': col.shrink}\"\n              id=\"{{::idPrefix}}-group-{{$parent.$index}}-{{$index}}-{{::col.id}}\"></td>\n          <td class=\"slds-cell-shrink\" ng-if=\"::actions\">\n            <slds-dropdown content=\"::actions\" ng-if=\"!row.deleting\" id-prefix=\"{{::idPrefix}}-group-{{$parent.$index}}-{{$index}}-actions\"></slds-dropdown>\n            <button class=\"slds-button slds-button--icon-bare\" ng-if=\"row.deleting\">\n              <slds-button-svg-icon sprite=\"'utility'\" icon=\"'spinner'\"></slds-button-svg-icon>\n              <span class=\"slds-assistive-text\">{{::$root.vlocity.getCustomLabel('Deleting', 'Deleting')}}</span>\n            </button>\n          </td>\n        </tr>\n      </tbody>\n      <tbody infinite-scroll=\"getMoreData()\" ng-if=\"!loading && sldsGroupedTableParams.groupBy === false\">\n        <tr class=\"slds-hint-parent\" ng-repeat=\"row in $data\"\n            ng-class=\"{'slds-is-selected': row.selected}\" role=\"row\"\n            id=\"{{::idPrefix}}-row-{{$index}}\">\n          <td class=\"slds-cell-shrink\" data-label=\"{{::$root.vlocity.getCustomLabel('SelectRow', 'Select Row')}}\">\n            <label class=\"slds-checkbox\" ng-if=\"::(sldsGroupedTableParams.multiselect)\"\n                    id=\"{{::idPrefix}}-row-{{$index}}-select-row\" title=\"{{::$root.vlocity.getCustomLabel('SelectRow', 'Select Row')}}\">\n              <input type=\"checkbox\" name=\"options\" ng-model=\"row.selected\" ng-change=\"toggleSelected(row)\" />\n              <span class=\"slds-checkbox--faux\"></span>\n              <span class=\"slds-assistive-text\">{{::$root.vlocity.getCustomLabel('SelectRow', 'Select Row')}}</span>\n            </label>\n          </td>\n          <th class=\"slds-truncate\" scope=\"row\"\n                id=\"{{::idPrefix}}-row-{{$index}}-{{::$columns[0].id}}\"\n                slds-bind-compiled-html=\"$columns[0].getValue(this, row)\"\n                is-dynamic=\"::($columns[0].dynamic === true || $columns[0].dynamic === 'row')\">\n          </th>\n          <td ng-repeat=\"col in ::$columns\"\n              ng-if=\"::(!$first)\"\n              slds-bind-compiled-html=\"col.getValue(this, row)\"\n              is-dynamic=\"::(col.dynamic === true || col.dynamic === 'row')\"\n              ng-class=\"::{'slds-truncate': !col.shrink, 'slds-cell-shrink': col.shrink}\"\n              id=\"{{::idPrefix}}-row-{{$index}}-{{::col.id}}\"></td>\n          <td class=\"slds-cell-shrink\" ng-if=\"::actions\">\n            <slds-dropdown content=\"::actions\" ng-if=\"!row.deleting\" id-prefix=\"{{::idPrefix}}-row-{{$parent.$index}}-{{$index}}-actions\" ></slds-dropdown>\n            <button class=\"slds-button slds-button--icon-bare\" ng-if=\"row.deleting\">\n              <slds-button-svg-icon sprite=\"'utility'\" icon=\"'spinner'\"></slds-button-svg-icon>\n              <span class=\"slds-assistive-text\">{{::$root.vlocity.getCustomLabel('Deleting', 'Deleting')}}</span>\n            </button>\n          </td>\n        </tr>\n      </tbody>\n      <tbody>\n        <tr ng-if=\"!loading && !maxLoad\">\n          <td class=\"slds-truncate\" colspan=\"{{$columns.length + 1}}\">\n            &nbsp;\n            <div class=\"slds-spinner_container\" style=\"z-index: 5\">\n              <div class=\"slds-spinner--brand slds-spinner slds-spinner--small\" aria-hidden=\"false\" role=\"alert\">\n                <div class=\"slds-spinner__dot-a\"></div>\n                <div class=\"slds-spinner__dot-b\"></div>\n              </div>\n            </div>\n          </td>\n        </tr>\n        <tr ng-if=\"loading\">\n          <td colspan=\"{{$columns.length + 1}}\" style=\"width: 100%; height: 400px\">\n            <div class=\"slds-spinner_container\" style=\"z-index: 5\">\n              <div class=\"slds-spinner--brand slds-spinner slds-spinner--large\" aria-hidden=\"false\" role=\"alert\">\n                <div class=\"slds-spinner__dot-a\"></div>\n                <div class=\"slds-spinner__dot-b\"></div>\n              </div>\n            </div>\n          </td>\n        </tr>\n      </tbody>\n    </table>\n  </div>\n</div>",
	"SldsHome.tpl.html": "<div class=\"slds-grid slds-grid--vertical slds-grid--vertical-stretch\" style=\"height: 100%; width: 100%\">\n  <style>\n    .via-slds.Theme3 .slds-page-header{\n      background: #FFFFFF;\n    }\n    .via-slds.Theme3 .via-slds-home-page {\n      max-height: 100vh;\n    }\n    html, body, .via-slds.Theme4, .via-slds.Theme4d {\n      height: 100%;\n      width: 100%;\n    }\n  </style>\n  <div class=\"via-slds-home-page slds-col slds-grid slds-grid--vertical slds-grid--vertical-stretch\" style=\"min-height: 0;\">\n    <div>\n      <slds-object-home-header\n          label=\"'Vlocity'\"\n          page-title=\"pageTitle\"\n          info=\"$root.vlocity.getCustomLabel('SldsObjectHomeHeaderInfo', 'As of {1} {2} - Viewing as {3} {4}', (timeAsOfNow | date:'mediumDate'), (timeAsOfNow | date:'shortTime'), userFirstName, userLastName)\"\n          image-url=\"imageUrl\">\n          <div class=\"slds-button-space-left\">\n            <div class=\"slds-form-element\">\n              <div class=\"slds-form-element__control slds-input-has-icon  custom-slds-icon--modified\">\n                <slds-svg-icon size=\"'small'\" extra-classes=\"'slds-input__icon slds-icon-text-default slds-m-left--small'\" sprite=\"'utility'\" icon=\"'search'\"></slds-svg-icon>\n                <input class=\"slds-input slds-p-left--x-large\" autofocus ng-change=\"onSearchBy(searchParam)\" ng-model=\"searchParam\" ng-model-options=\"{debounce: 1000}\"\n                  placeholder=\"Find in page\"></input>\n              </div>\n            </div>\n          </div>\n\n        <div class=\"slds-button-space-left\">\n            <button class=\"slds-button slds-button--icon-border slds-not-selected\"\n                    ng-click=\"sldsGroupedTableParams.reload()\"\n              id=\"{{idPrefix}}-refresh-btn\"\n              title=\"{{::$root.vlocity.getCustomLabel('RefreshData', 'Refresh Data')}}\">\n              <slds-button-svg-icon sprite=\"'utility'\" icon=\"'refresh'\"></slds-button-svg-icon>\n              <span class=\"slds-assistive-text\">{{::$root.vlocity.getCustomLabel('RefreshData', 'Refresh Data')}}</span>\n            </button>\n          </div>\n          <div class=\"slds-button-group slds-button-space-left\" role=\"group\">\n            <button class=\"slds-button slds-button--icon-border slds-not-selected\"\n                    ng-disabled=\"sldsGroupedTableParams.selected().length == 0\"\n                    ng-click=\"exportAll()\"\n                    id=\"{{idPrefix}}-export-all-btn\"\n                    title=\"{{::$root.vlocity.getCustomLabel('Export', 'Export')}}\">\n              <slds-button-svg-icon sprite=\"'utility'\" icon=\"'download'\"></slds-button-svg-icon>\n              <span class=\"slds-assistive-text\">{{::$root.vlocity.getCustomLabel('Export', 'Export')}}</span>\n            </button>\n            <button class=\"slds-button slds-button--icon-border \"\n                    ng-class=\"{'slds-is-selected': viewModel.showFilter, 'slds-not-selected': !viewModel.showFilter}\"\n                    ng-click=\"toggleFilter()\"\n                    id=\"{{idPrefix}}-toggle-filter-btn\"\n                    title=\"{{::$root.vlocity.getCustomLabel('FilterList', 'Filter List')}}\">\n              <slds-button-svg-icon sprite=\"'utility'\" icon=\"'filterList'\"></slds-button-svg-icon>\n              <span class=\"slds-assistive-text\">{{::$root.vlocity.getCustomLabel('FilterList', 'Filter List')}}</span>\n            </button>\n          </div>\n          <div class=\"slds-button-group\" role=\"group\">\n            <a class=\"slds-button slds-button--neutral\"\n                ng-click=\"openUrl(newUrl)\"\n                id=\"{{idPrefix}}-new-btn\" title=\"{{::$root.vlocity.getCustomLabel('New', 'New')}}\">{{::$root.vlocity.getCustomLabel('New', 'New')}}</a>\n            <button class=\"slds-button slds-button--neutral\" drv-import=\" \"\n                    on-import-complete=\"sldsGroupedTableParams.reload()\"\n                    handle-incompatible-file=\"_backcompatImport(json, done)\"\n                    id=\"{{idPrefix}}-import-btn\" title=\"{{::$root.vlocity.getCustomLabel('Import', 'Import')}}\">{{::$root.vlocity.getCustomLabel('Import', 'Import')}}</button>\n            <button class=\"slds-button slds-button--neutral\"\n                    ng-repeat=\"button in additionalHeaderButtons\"\n                    ng-click=\"button.click(this, $event);\"\n                    ng-disabled=\"sldsGroupedTableParams.selected().length == 0\"\n                    id=\"{{idPrefix}}-{{button.id}}\" title=\"{{button.text}}\">{{button.text}}</button>\n            <slds-dropdown type=\"'button-group'\" content=\"additionalTableButtons\" ng-if=\"additionalTableButtons.length > 0\"\n                            title=\"{{::$root.vlocity.getCustomLabel('AdditionalActions', 'Additional Actions')}}\"></slds-dropdown>\n          </div>\n      </slds-object-home-header>\n    </div>\n    <div class=\"slds-col slds-grid slds-grid--vertical-stretch\" ng-if=\"loading\">\n      <div ng-include=\"'SldsTableStencil.tpl.html'\" class=\"slds-col\"></div>\n    </div>\n    <div class=\"slds-col slds-grid slds-grid--vertical-stretch\" ng-if=\"!loading && sldsGroupedTableParams\" style=\"min-height: 0\">\n      <slds-grouped-table class=\"slds-col slds-grid slds-grid--vertical-stretch\"\n          slds-grouped-table-params=\"sldsGroupedTableParams\"\n          id-prefix=\"{{idPrefix}}\"></slds-grouped-table>\n      <div class=\"slds-col--rule-left slds-filter-panel\" slds-filter-panel ng-show=\"viewModel.showFilter\" show=\"viewModel.showFilter\"\n          filters=\"filters\" names=\"names\" description=\"description\"></div>\n    </div>\n  </div>\n</div>",
	"SldsInputSvgIcon.tpl.html": "<svg aria-hidden=\"true\" class=\"slds-input__icon slds-button__icon--{{size}} {{extraClasses}}\" xmlns=\"http://www.w3.org/2000/svg\" preserveAspectRatio=\"xMidYMid meet\">\n    <use xlink:href=\"\"></use>\n</svg>",
	"SldsMediaObject.tpl.html": "<div class=\"slds-media\" \n    ng-class=\"{\n        'slds-media--reponsive': responsive,\n        'slds-media--center': center\n    }\">\n    <div class=\"slds-media__figure\">\n      <img ng-src=\"{{imageUrl}}\" class=\"slds-avatar slds-avatar--{{size}}\" alt=\"{{imageAlt}}\"  ng-if=\"!icon\" />\n      <slds-svg-icon sprite=\"icon.sprite\" icon=\"icon.icon\" ng-if=\"icon\"/>\n    </div>\n    <div class=\"slds-media__body\" ng-transclude>\n    </div>\n</div>",
	"SldsModal.tpl.html": "",
	"SldsModalVlocSlide.tpl.html": "<div class=\"slds-modal slds-fade-in-open slds-modal--medium vloc-modal vloc-modal-slds-slide-up {{vlocSlideCustomClass}}\" ng-init=\"isModalLoaded = !isModalLoaded\">\n    <div class=\"slds-modal__container vloc-modal-container {{vlocSlideCustomClass}}-container\">\n        <button class=\"slds-button slds-button--icon-inverse slds-modal__close vloc-align-{{vlocSlideMobileClose}}\" ng-click=\"$slideHide()\" ng-if=\"!vlocSlideHeader\">\n            <slds-button-svg-icon sprite=\"'action'\" icon=\"'close'\" size=\"'large'\"></slds-button-svg-icon>\n            <span class=\"slds-assistive-text\">Close</span>\n        </button>\n        <header class=\"slds-modal__header slds-is-relative\" ng-show=\"vlocSlideHeader\">\n            <button class=\"slds-button slds-button--icon-inverse slds-modal__close vloc-align-{{vlocSlideMobileClose}}\" ng-click=\"$slideHide()\">\n                <slds-button-svg-icon sprite=\"'action'\" icon=\"'close'\" size=\"'large'\"></slds-button-svg-icon>\n                <span class=\"slds-assistive-text\">Close</span>\n            </button>\n            <h2 ng-show=\"title\" class=\"slds-text-heading_medium slds-hyphenate\" ng-bind=\"title\"></h2>\n        </header>\n        <div class=\"slds-modal__content slds-p-around--medium vloc-modal-content slds-is-relative\">\n            <div class=\"slds-spinner_container\" ng-class=\"{'vloc-show-loader': !isModalLoaded}\">\n                <div class=\"slds-spinner--brand slds-spinner slds-spinner--large slds-m-top--x-large slds-m-bottom--x-large\" aria-hidden=\"false\" role=\"alert\">\n                    <div class=\"slds-spinner__dot-a\"></div>\n                    <div class=\"slds-spinner__dot-b\"></div>\n                </div>\n            </div>\n            <div ng-bind-html=\"content\"></div>\n        </div>\n        <footer class=\"slds-modal__footer\" ng-show=\"vlocSlideFooter\">\n            <button class=\"slds-button slds-button_neutral\" ng-click=\"$slideHide()\">Cancel</button>\n        </footer>\n    </div>\n</div>\n<style type=\"text/css\">\n    .vlocity.via-slds .vloc-modal.slds-modal {\n        top: auto;\n        bottom: -125%;\n        height: 100%;\n        transition: bottom 250ms ease-in;\n    }\n\n    .vlocity.via-slds .vloc-modal.slds-modal .slds-spinner_container {\n        opacity: 0;\n        visibility: hidden;\n        transition: visibility 0ms linear 1250ms,\n                    opacity 500ms ease-in 750ms;\n    }\n\n    .vlocity.via-slds .vloc-modal.slds-modal .slds-spinner_container.vloc-show-loader {\n        opacity: 1;\n        visibility: visible;\n        transition: visibility 0ms linear 0ms,\n                    opacity 500ms ease-in 0ms;\n    }\n\n    .vlocity.via-slds .vloc-modal.slds-modal .slds-global-header_container {\n        opacity: 0;\n        transition: opacity 200ms ease-in 200ms;\n    }\n\n    .vlocity.via-slds .vloc-modal.slds-modal.vloc-modal-shown {\n        bottom: 0;\n    }\n\n    .vlocity.via-slds\n    .vloc-modal.slds-modal.vloc-modal-shown\n    .slds-global-header_container {\n        opacity: 1;\n    }\n\n    .vlocity.via-slds\n    .vloc-modal.slds-modal\n    .vloc-product-selection-details-modal {\n        position: absolute;\n    }\n\n    .vlocity.via-slds\n    .vloc-modal.slds-modal\n    .vloc-modal-container {\n        height: auto;\n        width: 90%;\n        min-width: 90%;\n        max-width: 90%;\n        padding: 0;\n        margin: 0;\n        position: absolute;\n        top: 50%;\n        left: 50%;\n        transform: translateY(-50%) translateX(-50%);\n    }\n\n    .vlocity.via-slds\n    .vloc-modal.slds-modal\n    .vloc-modal-container\n    .vloc-modal-content {\n        min-height: 30rem;\n        max-height: 0;\n        border-radius: 0;\n    }\n\n    @media screen and (max-width: 744px) {\n        .vlocity.via-slds .vloc-modal.slds-modal {\n            top: auto;\n            height: calc(100% - 20px); // leaving room for iPhone notification bar\n            bottom: -100%;\n        }\n\n        .vlocity.via-slds.platform-android .vloc-modal.slds-modal {\n            height: 100%; // Android doesn't need the 20px of room like iPhone\n        }\n\n        .vlocity.via-slds\n        .vloc-modal.slds-modal\n        .slds-modal__header {\n            border-radius: 0;\n        }\n\n        .vlocity.via-slds\n        .vloc-modal.slds-modal\n        .slds-modal__close {\n            top: 0.5rem;\n            left: auto;\n            right: auto;\n            z-index: 999;\n            color: #00396B;\n        }\n\n        .vlocity.via-slds\n        .vloc-modal.slds-modal\n        .slds-modal__close.vloc-align-left {\n            left: 0.5rem;\n        }\n\n        .vlocity.via-slds\n        .vloc-modal.slds-modal\n        .slds-modal__close.vloc-align-right {\n            right: 0.5rem;\n        }\n\n        .vlocity.via-slds\n        .vloc-modal.slds-modal\n        .vloc-modal-container {\n            width: 100%;\n            min-width: 100%;\n            height: 100%;\n            top: 0;\n            left: 0;\n            transform: none;\n            bottom: 0;\n            transition: bottom 250ms ease-in;\n        }\n\n        .vlocity.via-slds\n        .vloc-modal.slds-modal\n        .vloc-modal-container\n        .vloc-modal-content {\n            height: 100%;\n            min-height: auto;\n            max-height: 100%;\n        }\n\n        .vlocity.via-slds\n        .vloc-modal.slds-modal\n        .slds-modal__footer {\n            border-radius: 0;\n        }\n    }\n</style>",
	"SldsObjectHomeHeader.tpl.html": "<div class=\"slds-page-header\" role=\"banner\">\n  <div class=\"slds-grid\">\n    <div class=\"slds-col slds-has-flexi-truncate\">\n      <p class=\"slds-text-heading--label\" ng-bind=\"label\"></p>\n      <div class=\"slds-grid\">\n        <div class=\"slds-grid slds-no-space\">\n          <h1 class=\"slds-page-header__title slds-truncate\" title=\"{{pageTitle}}\" ng-bind=\"pageTitle\"></h1>\n        </div>\n      </div>\n    </div>\n    <div class=\"slds-col slds-no-flex slds-align-bottom\">\n      <div class=\"slds-grid\" ng-transclude></div>\n    </div>\n  </div>\n  <p class=\"slds-m-top--small slds-text-body--small slds-page-header__info\" ng-bind=\"info\"></p>\n</div>",
	"SldsPicklist.tpl.html": "<div ng-class=\"{'slds-form-element': ctrl.label}\" >\n    <label class=\"slds-form-element__label\" \n           ng-if=\"::ctrl.label\" \n           ng-bind=\"::ctrl.label\"></label>\n    <div ng-class=\"{'slds-form-element__control': ctrl.label}\">\n        <div class=\"slds-combobox_container\"\n             ng-class=\"slds-size_{{size}}\">            \n            <div class=\"slds-combobox slds-dropdown-trigger slds-dropdown-trigger_click via-slds-picklist\"\n                ng-class=\"{'slds-is-open': ctrl.isOpen, 'slds-combobox-picklist': !ctrl.isOpen}\" \n                style=\"width: 100%;\"\n                ng-attr-aria-expanded=\"{{ctrl.isOpen}}\"\n                aria-haspopup=\"listbox\" \n                role=\"combobox\">\n                <div class=\"slds-combobox__form-element slds-input-has-icon slds-input-has-icon_right via-slds-picklist__input\" role=\"none\" style=\"width: 100%; max-width: initial;\">\n                    <input type=\"search\" \n                          id=\"text-input-01\" \n                          class=\"slds-input slds-combobox__input ng-cloak\" \n                          placeholder=\"{{ctrl.emptyText}}\" \n                          ng-model=\"ctrl.searchText\" \n                          aria-controls=\"option-list-01\" \n                          role=\"textbox\" \n                          aria-activedescendant=\"\" \n                          aria-expanded=\"false\" \n                          ng-readonly=\"::(!ctrl.autocomplete)\" \n                          ng-disabled=\"ctrl.disabled\"\n                          autocomplete=\"off\" \n                          ng-required=\"::ctrl.required\"/>\n                    <span class=\"slds-icon_container slds-icon-utility-down slds-input__icon slds-input__icon_right\" \n                          aria-expanded=\"false\" \n                          tabindex=\"-1\" \n                          title=\"Expand\" \n                          ng-click=\"ctrl.toggleDropDown()\" >\n                        <slds-svg-icon sprite=\"'utility'\" \n                                        icon=\"'down'\"\n                                        size=\"'x-small'\"\n                                        extra-classes=\"'slds-icon-text-default'\"></slds-svg-icon>\n                        <span class=\"slds-assistive-text\">Expand category options</span>\n                    </span>\n                </div>\n                <div style=\"width: 100%; max-width: initial;\" \n                     role=\"listbox\">\n                    <ul class=\"slds-listbox slds-listbox_vertical slds-dropdown slds-dropdown_fluid slds-dropdown_length-10\" role=\"presentation\">\n                        <li role=\"presentation\" \n                            class=\"slds-listbox__item\"\n                            ng-repeat=\"match in ctrl.$matches | filter:ctrl.filterMatches\">\n                            <span class=\"slds-media slds-listbox__option slds-listbox__option_plain slds-media_small slds-media_center\" \n                                role=\"option\"\n                                ng-class=\"{'slds-has-focus': ctrl.$activeIndex == $index, 'slds-is-selected': ctrl.isMatch(match)}\"\n                                ng-click=\"ctrl.select(match);\">\n                                <span class=\"slds-media__figure\">\n                                    <slds-svg-icon sprite=\"'utility'\" \n                                                  icon=\"'check'\" \n                                                  size=\"'x-small'\" \n                                                  extra-classes=\"'slds-listbox__icon-selected'\"></slds-svg-icon>\n                                </span>\n                                <span class=\"slds-media__body\">\n                                    <span class=\"slds-truncate\" \n                                          ng-attr-title=\"{{::match.label}}\">{{::match.label}}\n                                    </span>\n                                </span>\n                            </span>\n                        </li>\n                    </ul>\n                </div>\n            </div>\n            <div role=\"listbox\" \n                aria-orientation=\"horizontal\"\n                ng-if=\"ctrl.multiple && ctrl.getMatches().length > 0 && !ctrl.isOpen\">\n                <ul class=\"slds-listbox slds-listbox_horizontal slds-p-top_xxx-small\" \n                    role=\"group\" \n                    aria-label=\"Selected Options:\">\n                    <li role=\"presentation\" \n                        class=\"slds-listbox__item\"\n                        ng-repeat=\"match in ctrl.getMatches()\">\n                        <span class=\"slds-pill\">\n                            <span class=\"slds-pill__label\" \n                                  title=\"{{::match.label}}\" \n                                  ng-bind=\"::match.label\"></span>\n                            <span class=\"slds-icon_container slds-pill__remove\" \n                                  title=\"Remove\" \n                                  ng-click=\"ctrl.select(match)\">\n                                <slds-svg-icon sprite=\"'utility'\" \n                                                      icon=\"'close'\"\n                                                      size=\"'x-small'\"\n                                                      extra-classes=\"'slds-icon-text-default'\"></slds-svg-icon>\n                                <span class=\"slds-assistive-text\">Remove</span>\n                            </span>\n                        </span>\n                    </li>\n                </ul>\n            </div>\n        </div>\n    </div>\n</div>",
	"SldsPopover.tpl.html": "<div class=\"slds-popover {{nubbinDirection ? 'slds-nubbin--' + nubbinDirection : ''}} {{theme ? 'slds-theme--' + theme : ''}} {{tooltip ? 'slds-popover--tooltip' : ''}}\"\n     role=\"dialog\"\n     style=\"position: absolute;\"\n     ng-show=\"title\">\n  <div class=\"slds-popover__body\" ng-bind=\"title\"></div>\n</div>",
	"SldsPopoverPanel.tpl.html": "<div class=\"slds-popover slds-popover--panel\" role=\"dialog\">\n  <div class=\"slds-popover__header\" ng-bind=\"title\">\n  </div>\n  <div class=\"slds-popover__body\" ng-bind=\"body\">\n  </div>\n</div>",
	"SldsPrompt.tpl.html": "<div aria-hidden=\"false\" role=\"dialog\" slds-prompt class=\"slds-modal slds-modal--prompt slds-fade-in-open\">\n  <div class=\"slds-modal__container slds-modal--prompt\">\n    <div class=\"slds-modal__header {{theme ? 'slds-theme--' + theme : ''}} {{theme == 'warning' || theme == 'error' ? 'slds-theme--alert-texture' : ''}}\">\n      <h2 class=\"slds-text-heading--medium\" ng-bind=\"title\"></h2>\n    </div>\n    <div class=\"slds-modal__content slds-p-around--medium\">\n      <div>\n        <p ng-bind-html=\"content\"></p>\n      </div>\n    </div>\n    <div class=\"slds-modal__footer slds-theme--default\">\n      <button\n        class=\"slds-button slds-button--{{button.type ? button.type : 'neutral'}}\"\n        ng-click=\"button.action ? button.action() : $hide()\"\n        ng-repeat=\"button in buttons\"\n        >{{button.label}}</button>\n    </div>\n  </div>\n</div>",
	"SldsRecordEditModal.tpl.html": "<div role=\"dialog\" tabindex=\"-1\" class=\"slds-modal slds-fade-in-open slds-scrollable--y\">\n  <div class=\"slds-modal__container\">\n    <div class=\"slds-modal__header\">\n      <h2 class=\"slds-text-heading--medium\" ng-bind=\"title\"></h2>\n    </div>\n    <div class=\"slds-modal__content slds-p-around--medium\">\n      <form class=\"slds-form--stacked\" name=\"instanceForm\">\n          <slds-form-element field=\"ctrl.fieldMetadata.Name\" \n              model=\"editInstance.Name\" \n              container=\".slds-modal\" \n              ng-if=\"!ctrl.hideDefaultName\"\n              object-type=\"ctrl.objectType\" \n              object-id=\"editInstance.Id\" \n              ng-required=\"true\"></slds-form-element>\n          <slds-form-element field=\"ctrl.fieldMetadata[field]\" \n              model=\"editInstance[field]\" \n              ng-repeat=\"field in ctrl.fields\" \n              ng-if=\"!ctrl.fieldMetadata[field].hidden\"\n              container=\".slds-modal\" \n              object-type=\"ctrl.objectType\" \n              object-id=\"editInstance.Id\" \n              custom-validator=\"ctrl.fieldMetadata[field].customValidator(modelValue, viewValue, editInstance)\" \n              custom-validator-message=\"ctrl.fieldMetadata[field].customValidatorMessage\"\n              depends-on=\"editInstance[ctrl.fieldMetadata[field].dependsOn]\"></slds-form-element>\n      </form>\n    </div>\n    <div class=\"slds-modal__footer\">\n      <button class=\"slds-button slds-button--neutral\" ng-click=\"cancel()\">{{::$root.vlocity.getCustomLabel('Cancel', 'Cancel')}}</button>\n      <button class=\"slds-button slds-button--brand\" ng-click=\"save()\" ng-disabled=\"instanceForm.$pristine || instanceForm.$invalid\">{{::$root.vlocity.getCustomLabel('Save', 'Save')}}</button>\n    </div>\n  </div>\n</div>",
	"SldsRecordHomeHeader.tpl.html": "<div class=\"via-slds-page-header--wrapper slds-grid slds-wrap\">\n    <div class=\"slds-page-header slds-size--1-of-1\" role=\"banner\">\n        <div class=\"slds-grid slds-is-relative\" style=\"z-index: 3\">\n            <div class=\"slds-col slds-has-flexi-truncate\">\n                <div class=\"slds-media slds-no-space slds-grow\">\n                    <div class=\"slds-media__figure\" ng-if=\"!ctrl.instance.$$saving && !ctrl.instance.$$deleting\">\n                        <slds-svg-icon sprite=\"ctrl.sprite\" icon=\"ctrl.icon\" extra-classes=\"ctrl.iconBgClass ? ctrl.iconBgClass : 'slds-icon-'+ctrl.sprite + '-' + ctrl.icon\"></slds-svg-icon>\n                    </div>\n                    <div class=\"slds-media__figure\" ng-if=\"ctrl.instance.$$saving || ctrl.instance.$$deleting\">\n                        <div class=\"slds-icon\" ng-class=\"ctrl.iconBgClass ? ctrl.iconBgClass : 'slds-icon-'+ctrl.sprite + '-' + ctrl.icon\" style=\"position: relative\">\n                            <div class=\"slds-spinner--inverse slds-spinner slds-spinner--small\" role=\"alert\">\n                                <span class=\"slds-assistive-text\">Loading</span>\n                                <div class=\"slds-spinner__dot-a\"></div>\n                                <div class=\"slds-spinner__dot-b\"></div>\n                            </div>\n                        </div>\n                    </div>\n                    <div class=\"slds-media__body\">\n                        <p class=\"slds-text-title--caps slds-line-height--reset via-slds--object-type\" ng-bind=\"ctrl.objectTypeLabel\"></p>\n                        <h1 class=\"slds-page-header__title slds-m-right--small slds-align-middle slds-truncate\" ng-attr-title=\"{{ctrl.instance.Name}}\" ng-bind=\"ctrl.instance.Name\"></h1>\n                    </div>\n                </div>\n            </div>\n            <div class=\"slds-col slds-no-flex slds-grid slds-align-bottom\">\n                <div class=\"slds-button-group\" role=\"group\">\n                    <button class=\"slds-button slds-button--neutral\" \n                            ng-repeat=\"button in ctrl.buttons\" \n                            ng-bind=\"button.label\" \n                            ng-hide=\"button.hide()\"\n                            ng-click=\"button.action()\"></button>\n                </div>\n            </div>\n        </div>\n        <ul class=\"slds-grid slds-page-header__detail-row\">\n            <li class=\"slds-page-header__detail-block\" ng-repeat=\"field in ctrl.fields\" ng-if=\"field !== 'Name' && !ctrl.getFieldHidden(field)\">\n                <p class=\"slds-text-title slds-truncate slds-m-bottom--xx-small\" ng-attr-title=\"{{::ctrl.getFieldLabel(field)}}\" ng-bind=\"ctrl.getFieldLabel(field)\"></p>\n                <p class=\"slds-text-body--regular slds-truncate\" ng-attr-title=\"{{ctrl.getFieldValue(field)}}\" ng-bind=\"ctrl.getFieldValue(field)\"></p>\n            </li>\n        </ul>\n    </div>\n    <div class=\"via-slds-page-header--proxy slds-size--1-of-1\"></div>\n    <div class=\"slds-spinner_container\" ng-if=\"ctrl.saving\">\n        <div class=\"slds-spinner--brand slds-spinner slds-spinner--medium\" role=\"alert\">\n            <span class=\"slds-assistive-text\">Saving</span>\n            <div class=\"slds-spinner__dot-a\"></div>\n            <div class=\"slds-spinner__dot-b\"></div>\n        </div>\n    </div>\n</div>",
	"SldsSelect.tpl.html": "<div class=\"slds-dropdown slds-dropdown--left slds-dropdown--small\" ng-show=\"$isVisible()\">\n    <ul class=\"dropdown__list slds-dropdown--length-5\" role=\"menu\">\n    \t<li ng-if=\"$showAllNoneButtons\">\n\t\t\t<div class=\"slds-button-group\">\n\t\t\t\t<button type=\"button\" class=\"slds-button slds-button--neutral\" ng-click=\"$selectAll()\">{{$allText}}</button>\n\t\t\t\t<button type=\"button\" class=\"slds-button slds-button--neutral\" ng-click=\"$selectNone()\">{{$noneText}}</button>\n\t\t\t</div>\n\t\t</li>\n\t\t<li class=\"slds-dropdown__item slds-has-icon slds-has-icon--right\" ng-repeat=\"match in $matches\">\n\t\t\t<a href=\"javascript:void(0);\" role=\"menuitem\" ng-click=\"$select($index, $event);\">\n\t\t\t\t<p class=\"slds-truncate\">\n\t\t\t\t\t<slds-button-svg-icon sprite=\"'utility'\" icon=\"$iconCheckmark\" ng-if=\"$isMultiple && $isActive($index)\"></slds-button-svg-icon>\n\t\t\t\t\t<span ng-bind=\"match.label\" ng-class=\"{'slds-p-left--medium': !($isMultiple && $isActive($index))}\"></span>\n\t\t\t\t</p>\n\t\t\t</a>\n\t\t</li>\n\t</ul>\n</div>",
	"SldsSvgIcon.tpl.html": "<svg aria-hidden=\"true\" class=\"slds-icon slds-icon--{{size}} {{extraClasses}}\" xmlns=\"http://www.w3.org/2000/svg\" preserveAspectRatio=\"xMidYMid meet\">\n    <use xlink:href=\"\"></use>\n</svg>",
	"SldsTableStencil.tpl.html": "<style>\n.via-slds-list-stencil .border-bottom {\n    padding: 1rem 1.5rem .3rem;\n    border-bottom: 1px solid rgb(216, 221, 230);\n}\n.via-slds-list-stencil .text-body-col {\n    display: flex;\n    width: 100%;\n}\n.via-slds-list-stencil .text {\n    width: 45%;\n    background-color: rgb(238, 241, 246);\n    border-radius: 14px;\n    display: inline-block;\n    margin-bottom: .75rem;\n    height: .5rem;\n    margin-right: .75rem;\n}\n.via-slds-list-stencil .opacity90 {\n    opacity: .90;\n}\n.via-slds-list-stencil .opacity80 {\n    opacity: .80;\n}\n.via-slds-list-stencil .opacity70 {\n    opacity: .70;\n}\n.via-slds-list-stencil .opacity60 {\n    opacity: .60;\n}\n.via-slds-list-stencil .opacity50 {\n    opacity: .50;\n}\n.via-slds-list-stencil .opacity40 {\n    opacity: .40;\n}\n.via-slds-list-stencil .opacity30 {\n    opacity: .30;\n}\n.via-slds-list-stencil .opacity20 {\n    opacity: .20;\n}\n.via-slds-list-stencil .opacity10 {\n    opacity: .10;\n}\n</style>\n<div class=\"via-slds-list-stencil\">\n    <div class=\"via-stencil\">\n        <div class=\"via-placeholder via-table_list_line_item \">\n            <div class=\"body border-bottom\">\n                <div class=\"text-body-col\">\n                    <div class=\"text text-short\"></div>\n                    <div class=\"text text-short\"></div>\n                    <div class=\"text text-short\"></div>\n                    <div class=\"text text-short\"></div>\n                    <div class=\"text text-short\"></div>\n                </div>\n            </div>\n        </div>\n    </div>\n    <div class=\"via-stencil\">\n        <div class=\"via-placeholder via-table_list_line_item opacity90\">\n            <div class=\"body border-bottom\">\n                <div class=\"text-body-col\">\n                    <div class=\"text text-short\"></div>\n                    <div class=\"text text-short\"></div>\n                    <div class=\"text text-short\"></div>\n                    <div class=\"text text-short\"></div>\n                    <div class=\"text text-short\"></div>\n                </div>\n            </div>\n        </div>\n    </div>\n    <div class=\"via-stencil\">\n        <div class=\"via-placeholder via-table_list_line_item opacity80\">\n            <div class=\"body border-bottom\">\n                <div class=\"text-body-col\">\n                    <div class=\"text text-short\"></div>\n                    <div class=\"text text-short\"></div>\n                    <div class=\"text text-short\"></div>\n                    <div class=\"text text-short\"></div>\n                    <div class=\"text text-short\"></div>\n                </div>\n            </div>\n        </div>\n    </div>\n    <div class=\"via-stencil\">\n        <div class=\"via-placeholder via-table_list_line_item opacity70\">\n            <div class=\"body border-bottom\">\n                <div class=\"text-body-col\">\n                    <div class=\"text text-short\"></div>\n                    <div class=\"text text-short\"></div>\n                    <div class=\"text text-short\"></div>\n                    <div class=\"text text-short\"></div>\n                    <div class=\"text text-short\"></div>\n                </div>\n            </div>\n        </div>\n    </div>\n    <div class=\"via-stencil\">\n        <div class=\"via-placeholder via-table_list_line_item opacity60\">\n            <div class=\"body border-bottom\">\n                <div class=\"text-body-col\">\n                    <div class=\"text text-short\"></div>\n                    <div class=\"text text-short\"></div>\n                    <div class=\"text text-short\"></div>\n                    <div class=\"text text-short\"></div>\n                    <div class=\"text text-short\"></div>\n                </div>\n            </div>\n        </div>\n    </div>\n    <div class=\"via-stencil\">\n        <div class=\"via-placeholder via-table_list_line_item opacity50\">\n            <div class=\"body border-bottom\">\n                <div class=\"text-body-col\">\n                    <div class=\"text text-short\"></div>\n                    <div class=\"text text-short\"></div>\n                    <div class=\"text text-short\"></div>\n                    <div class=\"text text-short\"></div>\n                    <div class=\"text text-short\"></div>\n                </div>\n            </div>\n        </div>\n    </div>\n    <div class=\"via-stencil\">\n        <div class=\"via-placeholder via-table_list_line_item opacity40\">\n            <div class=\"body border-bottom\">\n                <div class=\"text-body-col\">\n                    <div class=\"text text-short\"></div>\n                    <div class=\"text text-short\"></div>\n                    <div class=\"text text-short\"></div>\n                    <div class=\"text text-short\"></div>\n                    <div class=\"text text-short\"></div>\n                </div>\n            </div>\n        </div>\n    </div>\n    <div class=\"via-stencil\">\n        <div class=\"via-placeholder via-table_list_line_item opacity30\">\n            <div class=\"body border-bottom\">\n                <div class=\"text-body-col\">\n                    <div class=\"text text-short\"></div>\n                    <div class=\"text text-short\"></div>\n                    <div class=\"text text-short\"></div>\n                    <div class=\"text text-short\"></div>\n                    <div class=\"text text-short\"></div>\n                </div>\n            </div>\n        </div>\n    </div>\n    <div class=\"via-stencil\">\n        <div class=\"via-placeholder via-table_list_line_item opacity20\">\n            <div class=\"body border-bottom\">\n                <div class=\"text-body-col\">\n                    <div class=\"text text-short\"></div>\n                    <div class=\"text text-short\"></div>\n                    <div class=\"text text-short\"></div>\n                    <div class=\"text text-short\"></div>\n                    <div class=\"text text-short\"></div>\n                </div>\n            </div>\n        </div>\n    </div>\n    <div class=\"via-stencil\">\n        <div class=\"via-placeholder via-table_list_line_item opacity10\">\n            <div class=\"body border-bottom\">\n                <div class=\"text-body-col\">\n                    <div class=\"text text-short\"></div>\n                    <div class=\"text text-short\"></div>\n                    <div class=\"text text-short\"></div>\n                    <div class=\"text text-short\"></div>\n                    <div class=\"text text-short\"></div>\n                </div>\n            </div>\n        </div>\n    </div>\n</div>",
	"SldsTabs.tpl.html": "<div class=\"slds-tabs--default\">\n    <ul class=\"slds-tabs--default__nav\" role=\"tablist\">\n      <li class=\"slds-tabs--default__item slds-text-heading--label\" title=\"{{$pane.title}}\" role=\"presentation\" ng-repeat=\"$pane in $panes track by $index\" ng-class=\"{'slds-active': $isActive($pane, $index)}\">\n        <a class=\"slds-tabs--default__link\" href=\"javascript:void(0);\" role=\"tab\" tabindex=\"$index\" aria-selected=\"true\" aria-controls=\"tab-default-{{$index}}\" ng-bind-html=\"$pane.title\" data-index=\"{{ $index }}\" ng-click=\"!$pane.disabled && $setActive($pane.name || $index)\"></a>\n      </li>\n    </ul>\n    <div class=\"slds-tabs--default__content {{sldsTabsPaneClass}} slds-show\" role=\"tabpanel\" aria-labelledby=\"tab-default-1__item\" ng-transclude></div>\n</div> ",
	"SldsTimePicker.tpl.html": "<div class=\"slds-dropdown slds-datepicker timepicker\" style=\"min-width: 0px;width: fit-content; direction:ltr\">\n    <table height=\"100%\">\n        <thead>\n            <tr class=\"text-center\">\n                <th>\n                    <button tabindex=\"-1\" type=\"button\" class=\"slds-button slds-button--icon\" ng-click=\"$arrowAction(-1, 0)\">\n                        <slds-button-svg-icon sprite=\"'utility'\" icon=\"$iconUp\"/>\n                        <span class=\"slds-assistive-text\">{{::$root.vlocity.getCustomLabel('Up', 'Up')}}</span>\n                    </button>\n                </th>\n                <th>&nbsp;</th>\n                <th>\n                    <button tabindex=\"-1\" type=\"button\" class=\"slds-button slds-button--icon\" ng-click=\"$arrowAction(-1, 1)\">\n                        <slds-button-svg-icon sprite=\"'utility'\" icon=\"$iconUp\"/>\n                        <span class=\"slds-assistive-text\">{{::$root.vlocity.getCustomLabel('Up', 'Up')}}</span>\n                    </button>\n                </th>\n                <th ng-if=\"showSeconds\">&nbsp;</th>\n                <th ng-if=\"showSeconds\">\n                    <button  tabindex=\"-1\" type=\"button\" class=\"slds-button slds-button--icon\" ng-click=\"$arrowAction(-1, 2)\">\n                        <slds-button-svg-icon sprite=\"'utility'\" icon=\"$iconUp\"/>\n                        <span class=\"slds-assistive-text\">{{::$root.vlocity.getCustomLabel('Up', 'Up')}}</span>\n                    </button>\n                </th>\n                <th ng-if=\"showAM\">&nbsp;</td>\n                <th ng-if=\"showAM\">&nbsp;</td>\n            </tr>\n        </thead>\n        <tbody>\n            <tr ng-repeat=\"(i, row) in rows\">\n                <td class=\"text-center\" ng-class=\"{'slds-is-today': row[0].now && !row[0].selected, 'slds-is-selected': row[0].selected}\">\n                    <span class=\"slds-day\" ng-class=\"{'text-muted': row[0].muted}\" ng-bind=\"row[0].label\" ng-click=\"$select(row[0].date, 0)\" ng-disabled=\"row[0].disabled\"></span>\n                </td>\n                <td><span ng-bind=\"i == midIndex ? timeSeparator : ' '\"></span></td>\n                <td class=\"text-center\" ng-class=\"{'slds-is-today': row[1].now && !row[1].selected, 'slds-is-selected': row[1].selected}\">\n                    <span class=\"slds-day\" ng-class=\"{'text-muted': row[1].muted}\" ng-bind=\"row[1].label\" ng-click=\"$select(row[1].date, 1)\" ng-disabled=\"row[1].disabled\"></span>\n                </td>\n                <td ng-if=\"showSeconds\"><span ng-bind=\"i == midIndex ? timeSeparator : ' '\"></span></td>\n                <td ng-if=\"showSeconds\" class=\"text-center\" ng-class=\"{'slds-is-today': row[2].now && !row[2].selected, 'slds-is-selected': row[2].selected}\">\n                    <span class=\"slds-day\" ng-class=\"{'text-muted': row[2].muted}\" ng-bind=\"row[2].label\" ng-click=\"$select(row[2].date, 2)\" ng-disabled=\"row[2].disabled\"></span>\n                </td>\n                <td ng-if=\"showAM\">&nbsp;</td>\n                <td ng-if=\"showAM && i == midIndex - !viewAM * 1\" ng-class=\"{'slds-is-today': nowAM && !isAM, 'slds-is-selected': !!isAM}\">\n                    <span class=\"slds-day\" ng-click=\"$switchMeridian()\" ng-disabled=\"el.disabled\">{{::$root.vlocity.getCustomLabel('AM', 'AM')}}</span>\n                </td>\n                <td ng-if=\"showAM && i == midIndex + 1 - !viewAM * 1\" ng-class=\"{'slds-is-today': !nowAM && isAM !== false, 'slds-is-selected': isAM === false}\">\n                    <span class=\"slds-day\" ng-click=\"$switchMeridian()\" ng-disabled=\"el.disabled\">{{::$root.vlocity.getCustomLabel('PM', 'PM')}}</span>\n                </td>\n            </tr>\n        </tbody>\n        <tfoot>\n            <tr class=\"text-center\">\n                <th>\n                    <button tabindex=\"-1\" type=\"button\" class=\"slds-button slds-button--icon\" ng-click=\"$arrowAction(1, 0)\">\n                        <slds-button-svg-icon sprite=\"'utility'\" icon=\"$iconDown\"/>\n                        <span class=\"slds-assistive-text\">{{::$root.vlocity.getCustomLabel('Down', 'Down')}}</span>\n                    </button>\n                </th>\n                <th>&nbsp;</th>\n                <th>\n                    <button tabindex=\"-1\" type=\"button\" class=\"slds-button slds-button--icon\" ng-click=\"$arrowAction(1, 1)\">\n                        <slds-button-svg-icon sprite=\"'utility'\" icon=\"$iconDown\"/>\n                        <span class=\"slds-assistive-text\">{{::$root.vlocity.getCustomLabel('Down', 'Down')}}</span>\n                    </button>\n                </th>\n                <th ng-if=\"showSeconds\">&nbsp;</th>\n                <th ng-if=\"showSeconds\">\n                    <button tabindex=\"-1\" type=\"button\" class=\"slds-button slds-button--icon\" ng-click=\"$arrowAction(1, 2)\">\n                        <slds-button-svg-icon sprite=\"'utility'\" icon=\"$iconDown\"/>\n                        <span class=\"slds-assistive-text\">{{::$root.vlocity.getCustomLabel('Down', 'Down')}}</span>\n                    </button>\n                </th>\n            </tr>\n        </tfoot>\n    </table>\n</div>\n",
	"SldsToast.tpl.html": "<div class=\"slds-notify slds-notify--toast\" \n  ng-class=\"{'slds-theme--success': severity == 'success', 'slds-theme--warning': severity == 'warning', 'slds-theme--error': severity == 'error'}\" \n  role=\"alert\">\n  <span class=\"slds-assistive-text\">{{::$root.vlocity.getCustomLabel('Info', 'Info')}}</span>\n  <button class=\"slds-button slds-button--icon-inverse slds-notify__close\" ng-click=\"$hide()\">\n    <slds-button-svg-icon sprite=\"'utility'\" icon=\"'close'\" size=\"'large'\"></slds-button-svg-icon>\n    <span class=\"slds-assistive-text\">{{::$root.vlocity.getCustomLabel('Close', 'Close')}}</span>\n  </button>\n  <div class=\"slds-notify__content slds-grid\">\n      <slds-svg-icon sprite=\"'utility'\" icon=\"icon\" size=\"'small'\" extra-classes=\"'slds-m-right--small slds-col slds-no-flex'\" ng-if=\"icon\"></slds-svg-icon>\n      <div class=\"slds-col slds-align-middle\">\n        <h2 class=\"slds-text-heading--small\" ng-if=\"title\">\n          {{title}}\n        </h2>\n        <h2 class=\"slds-text-heading--small\" ng-if=\"message\">\n          {{message}}\n        </h2>\n        <p ng-if=\"content\">{{content}}</p>\n      </div>\n  </div>\n</div>\n\n<style type=\"text/css\">\n.slds-notify--toast {\n  -webkit-animation: fadein 1s; /* Safari, Chrome and Opera > 12.1 */\n  -moz-animation: fadein 1s; /* Firefox < 16 */\n  -ms-animation: fadein 1s; /* Internet Explorer */\n  -o-animation: fadein 1s; /* Opera < 12.1 */\n  animation: fadein 1s;\n}\n\n.slds-notify--toast .dismiss {\n  -webkit-animation: fadeout 1s; /* Safari, Chrome and Opera > 12.1 */\n  -moz-animation: fadeout 1s; /* Firefox < 16 */\n  -ms-animation: fadeout 1s; /* Internet Explorer */\n  -o-animation: fadeout 1s; /* Opera < 12.1 */\n  animation: fadeout 1s;\n}\n\n@keyframes fadein {\n    from { opacity: 0; }\n    to   { opacity: 1; }\n}\n\n@keyframes fadeout {\n    from { opacity: 1; }\n    to   { opacity: 0; }\n}\n</style>\n",
	"SldsTypeahead.tpl.html": "<div class=\"slds-dropdown slds-dropdown--left slds-size--1-of-1\" ng-show=\"$isVisible()\">\n    <ul tabindex=\"-1\" class=\"dropdown__list\" role=\"menu\">\n      <li class=\"slds-dropdown__item\" ng-repeat=\"match in $matches\" ng-class=\"{active: $index == $activeIndex}\">\n        <a href=\"javascript:void(0);\" role=\"menuitem\" tabindex=\"-1\" ng-click=\"$select($index, $event)\" >\n          <p class=\"slds-truncate\" ng-bind=\"match.label\"></p>\n        </a>\n      </li>\n    </ul>\n</div>"
}